/****************************************************************************
* COSC1098/1283/1284 - Programming Principles 2A/Programming Techniques
* Summer 2006 Assignment #2 - Academic Management System
* Full Name        : EDIT HERE
* Student Number   : EDIT HERE
* Yallara Username : EDIT HERE
* Course Code      : EDIT HERE
* Program Code     : EDIT HERE
* Start up code provided by Steven Burrows - sdb@cs.rmit.edu.au
****************************************************************************/

If selected, do you grant permission for your assignment 
to be released as an anonymous student sample solution?
--------------------------------------------------------



Known bugs:
-----------



Incomplete functionality:
-------------------------



Assumptions:
------------



Any other notes for the marker:
-------------------------------


